{
    "wavelength_nm" : 488.00,
    "glass_index" : 1.52,
    "medium_index" : 1.35,
    "oil_index" : 1.5180000066757202,
    "numerical_aperture" : 1.4900000095367432,
    "beam_divergence" : 0.10000000149011612,
    "angles" : [
	62.8263541387449,
	62.8437832567258,
	62.8638186890635,
	62.887007835781,
	62.9140499253383,
	62.9458495785375,
	62.9835938279861,
	63.0288651351134,
	63.0838110475438,
	63.1514055184865,
	63.2358633856191,
	63.3433203481157,
	63.4829932795472,
	63.6692545297465,
	63.9255541319209,
	64.292367856266,
	64.8447906428148,
	65.7363690981939,
	67.328731737121,
	70.7048749538155,
        91.000000000000000
    ]
}